<?xml version="1.0" encoding="UTF-8"?>
<CustomTab xmlns="http://soap.sforce.com/2006/04/metadata">
    <customObject>true</customObject>
    <description>Recording Faulty Devices returned to the Swiss for investigation
NZ</description>
    <mobileReady>false</mobileReady>
    <motif>Custom83: Pencil</motif>
</CustomTab>
