<?xml version="1.0" encoding="UTF-8"?>
<CustomTab xmlns="http://soap.sforce.com/2006/04/metadata">
    <frameHeight>600</frameHeight>
    <hasSidebar>false</hasSidebar>
    <icon>Logo/Synthes_Circle_Logo.jpg</icon>
    <label>Know Your Options</label>
    <mobileReady>true</mobileReady>
    <motif>Custom299: TV Widescreen</motif>
    <url>http://www.synthes.com/html/index.php?id=8311&amp;L=0</url>
    <urlEncodingKey>UTF-8</urlEncodingKey>
</CustomTab>
